# obj file of Cube 2 level

mtllib pit.mtl

v 64 64 -64
v 80 64 0
v 64 0 -64
v 80 0 0
v 0 64 -80
v 0 0 -80
v 64 128 -64
v 80 128 0
v 0 128 -80
v 64 192 -64
v 80 192 0
v 0 192 -80
v 64 256 -64
v 80 256 0
v 0 256 -80
v 128 320 -64
v 64 320 -64
v 128 320 -128
v 64 320 -128
v 80 320 0
v 128 320 0
v 0 320 -80
v 0 320 -128
v 64 64 64
v 64 0 64
v 0 0 80
v 0 64 80
v 64 128 64
v 0 128 80
v 64 192 64
v 0 192 80
v 64 256 64
v 0 256 80
v 64 320 64
v 128 320 64
v 128 320 128
v 64 320 128
v 0 320 80
v 0 320 128
v -64 64 -64
v -64 0 -64
v -80 64 0
v -80 0 0
v -64 128 -64
v -80 128 0
v -64 192 -64
v -80 192 0
v -64 256 -64
v -80 256 0
v -64 320 -64
v -80 320 0
v -64 320 -128
v -128 320 -64
v -128 320 -128
v -128 320 0
v -64 0 64
v -64 64 64
v -64 128 64
v -64 192 64
v -64 256 64
v -64 320 64
v -64 320 128
v -128 320 64
v -128 320 128

vt 14.000000 9.000000
vt 16.000000 9.000000
vt 14.000000 7.000000
vt 16.000000 7.000000
vt 14.000000 11.000000
vt 16.000000 11.000000
vt 14.000000 13.000000
vt 16.000000 13.000000
vt 14.000000 15.000000
vt 16.000000 15.000000
vt 14.000000 -11.000000
vt 14.000000 -13.000000
vt 12.000000 -11.000000
vt 12.000000 -13.000000
vt 14.000000 17.000000
vt 16.000000 17.000000
vt 16.000000 -11.000000
vt 16.000000 -12.500000
vt 13.500000 -15.000000
vt 12.000000 -15.000000
vt 18.000000 9.000000
vt 18.000000 7.000000
vt 18.000000 11.000000
vt 18.000000 13.000000
vt 18.000000 15.000000
vt 18.000000 17.000000
vt 18.000000 -11.000000
vt 18.000000 -13.000000
vt 20.000000 -11.000000
vt 20.000000 -13.000000
vt 20.000000 -15.000000
vt 18.500000 -15.000000
vt 14.000000 -17.000000
vt 12.000000 -17.000000
vt 14.000000 -19.000000
vt 12.000000 -19.000000
vt 16.000000 -17.500000
vt 16.000000 -19.000000
vt 20.000000 -17.000000
vt 18.000000 -17.000000
vt 18.000000 -19.000000
vt 20.000000 -19.000000

g slot1
usemtl slot1

f 3/3 2/2 1/1
f 3/3 4/4 2/2
f 5/2 3/3 1/1
f 5/2 6/4 3/3
f 1/1 8/6 7/5
f 1/1 2/2 8/6
f 9/6 1/1 7/5
f 9/6 5/2 1/1
f 7/5 11/8 10/7
f 7/5 8/6 11/8
f 12/8 7/5 10/7
f 12/8 9/6 7/5
f 10/7 14/10 13/9
f 10/7 11/8 14/10
f 15/10 10/7 13/9
f 15/10 12/8 10/7
f 18/13 17/12 16/11
f 18/13 19/14 17/12
f 13/9 20/16 17/15
f 13/9 14/10 20/16
f 16/11 20/18 21/17
f 16/11 17/12 20/18
f 22/16 13/9 17/15
f 22/16 15/10 13/9
f 19/14 22/19 17/12
f 19/14 23/20 22/19
f 4/4 24/21 2/2
f 4/4 25/22 24/21
f 27/2 25/3 26/4
f 27/2 24/1 25/3
f 2/2 28/23 8/6
f 2/2 24/21 28/23
f 29/6 24/1 27/2
f 29/6 28/5 24/1
f 8/6 30/24 11/8
f 8/6 28/23 30/24
f 31/8 28/5 29/6
f 31/8 30/7 28/5
f 11/8 32/25 14/10
f 11/8 30/24 32/25
f 33/10 30/7 31/8
f 33/10 32/9 30/7
f 14/10 34/26 20/16
f 14/10 32/25 34/26
f 21/17 34/28 35/27
f 21/17 20/18 34/28
f 35/27 37/30 36/29
f 35/27 34/28 37/30
f 38/16 32/9 33/10
f 38/16 34/15 32/9
f 34/28 39/31 37/30
f 34/28 38/32 39/31
f 40/21 6/4 5/2
f 40/21 41/22 6/4
f 42/2 41/3 40/1
f 42/2 43/4 41/3
f 44/23 5/2 9/6
f 44/23 40/21 5/2
f 45/6 40/1 44/5
f 45/6 42/2 40/1
f 46/24 9/6 12/8
f 46/24 44/23 9/6
f 47/8 44/5 46/7
f 47/8 45/6 44/5
f 48/25 12/8 15/10
f 48/25 46/24 12/8
f 49/10 46/7 48/9
f 49/10 47/8 46/7
f 50/26 15/10 22/16
f 50/26 48/25 15/10
f 51/16 48/9 50/15
f 51/16 49/10 48/9
f 23/20 50/33 22/19
f 23/20 52/34 50/33
f 52/34 53/35 50/33
f 52/34 54/36 53/35
f 50/33 55/38 51/37
f 50/33 53/35 55/38
f 57/21 26/4 56/22
f 57/21 27/2 26/4
f 57/21 43/4 42/2
f 57/21 56/22 43/4
f 58/23 27/2 57/21
f 58/23 29/6 27/2
f 58/23 42/2 45/6
f 58/23 57/21 42/2
f 59/24 29/6 58/23
f 59/24 31/8 29/6
f 59/24 45/6 47/8
f 59/24 58/23 45/6
f 60/25 31/8 59/24
f 60/25 33/10 31/8
f 60/25 47/8 49/10
f 60/25 59/24 47/8
f 61/26 33/10 60/25
f 61/26 38/16 33/10
f 61/26 49/10 51/16
f 61/26 60/25 49/10
f 38/32 62/39 39/31
f 38/32 61/40 62/39
f 51/37 63/41 61/40
f 51/37 55/38 63/41
f 61/40 64/42 62/39
f 61/40 63/41 64/42

