# obj file of Cube 2 level

mtllib tunnel2.mtl

v 256 0 0
v 0 0 0
v 256 0 -256
v 0 0 -256
v 0 0 256
v -256 0 256
v -256 0 0
v -256 0 -256
v 0 0 64
v 64 0 64
v 0 64 64
v 64 64 64
v 0 128 64
v 64 128 64
v 32 160 0
v 32 160 32
v 64 128 0
v 64 128 32
v 32 128 64
v 0 160 32
v 0 172 0
v 64 64 0
v 64 0 0
v 32 160 -256
v 32 160 -224
v 64 128 -256
v 64 128 -224
v 32 160 -192
v 64 128 -192
v 0 172 -256
v 0 172 -224
v 0 172 -192
v 32 160 -160
v 64 128 -160
v 32 160 -128
v 64 128 -128
v 0 172 -160
v 0 172 -128
v 32 160 -96
v 64 128 -96
v 32 160 -64
v 64 128 -64
v 0 172 -96
v 0 172 -64
v 32 160 -32
v 64 128 -32
v 0 172 -32
v 64 64 -256
v 64 64 -192
v 64 0 -256
v 64 0 -192
v 64 64 -128
v 64 0 -128
v 64 64 -64
v 64 0 -64
v -64 64 -256
v -64 0 -256
v -64 64 -192
v -64 0 -192
v -64 64 -128
v -64 0 -128
v -64 128 -256
v -64 128 -192
v -64 128 -128
v -64 64 -64
v -64 0 -64
v -128 64 -64
v -128 0 -64
v -64 128 -64
v -128 128 -64
v -192 64 -64
v -192 0 -64
v -256 64 -64
v -256 0 -64
v -192 128 -64
v -256 128 -64
v -64 128 -224
v -32 160 -256
v -32 160 -224
v -32 160 -192
v -64 128 -160
v -32 160 -160
v -32 160 -128
v -64 128 -96
v -32 160 -96
v -32 160 -64
v -64 160 -32
v -32 160 -32
v -32 172 0
v -64 172 0
v -96 128 -64
v -96 160 -32
v -128 160 -32
v -96 172 0
v -128 172 0
v -160 128 -64
v -160 160 -32
v -192 160 -32
v -160 172 0
v -192 172 0
v -224 128 -64
v -224 160 -32
v -256 160 -32
v -224 172 0
v -256 172 0
v -64 0 64
v -64 64 64
v -128 0 64
v -128 64 64
v -64 128 64
v -128 128 64
v -192 0 64
v -192 64 64
v -256 0 64
v -256 64 64
v -192 128 64
v -256 128 64
v -32 160 32
v -32 128 64
v -64 160 32
v -96 160 32
v -96 128 64
v -128 160 32
v -160 160 32
v -160 128 64
v -192 160 32
v -224 160 32
v -224 128 64
v -256 160 32

vt 16.000000 -7.000000
vt 16.000000 -15.000000
vt 8.000000 -7.000000
vt 8.000000 -15.000000
vt 24.000000 -15.000000
vt 24.000000 -23.000000
vt 16.000000 -23.000000
vt 8.000000 -23.000000
vt 16.000000 17.000000
vt 14.000000 17.000000
vt 16.000000 19.000000
vt 14.000000 19.000000
vt 16.000000 21.000000
vt 14.000000 21.000000
vt 16.000000 -14.000000
vt 17.000000 -14.000000
vt 16.000000 -13.000000
vt 17.000000 -13.000000
vt 18.000000 -14.000000
vt 18.000000 -13.000000
vt 17.000000 -15.000000
vt 18.000000 -15.000000
vt 18.000000 19.000000
vt 18.000000 17.000000
vt 18.000000 21.000000
vt 8.000000 -14.000000
vt 9.000000 -14.000000
vt 8.000000 -13.000000
vt 9.000000 -13.000000
vt 10.000000 -14.000000
vt 10.000000 -13.000000
vt 9.000000 -15.000000
vt 10.000000 -15.000000
vt 11.000000 -14.000000
vt 11.000000 -13.000000
vt 12.000000 -14.000000
vt 12.000000 -13.000000
vt 11.000000 -15.000000
vt 12.000000 -15.000000
vt 13.000000 -14.000000
vt 13.000000 -13.000000
vt 14.000000 -14.000000
vt 14.000000 -13.000000
vt 13.000000 -15.000000
vt 14.000000 -15.000000
vt 15.000000 -14.000000
vt 15.000000 -13.000000
vt 15.000000 -15.000000
vt 8.000000 19.000000
vt 10.000000 19.000000
vt 8.000000 17.000000
vt 10.000000 17.000000
vt 12.000000 19.000000
vt 12.000000 17.000000
vt 8.000000 21.000000
vt 10.000000 21.000000
vt 12.000000 21.000000
vt 20.000000 19.000000
vt 20.000000 17.000000
vt 20.000000 21.000000
vt 22.000000 19.000000
vt 22.000000 17.000000
vt 24.000000 19.000000
vt 24.000000 17.000000
vt 22.000000 21.000000
vt 24.000000 21.000000
vt 8.000000 -17.000000
vt 9.000000 -17.000000
vt 8.000000 -16.000000
vt 9.000000 -16.000000
vt 10.000000 -17.000000
vt 10.000000 -16.000000
vt 11.000000 -17.000000
vt 11.000000 -16.000000
vt 12.000000 -17.000000
vt 12.000000 -16.000000
vt 13.000000 -17.000000
vt 13.000000 -16.000000
vt 14.000000 -17.000000
vt 14.000000 -16.000000
vt 15.000000 -17.000000
vt 15.000000 -16.000000
vt 16.000000 -16.000000
vt 16.000000 -17.000000
vt 14.000000 -18.000000
vt 15.000000 -18.000000
vt 14.000000 -19.000000
vt 15.000000 -19.000000
vt 16.000000 -18.000000
vt 16.000000 -19.000000
vt 14.000000 -20.000000
vt 15.000000 -20.000000
vt 14.000000 -21.000000
vt 15.000000 -21.000000
vt 16.000000 -20.000000
vt 16.000000 -21.000000
vt 14.000000 -22.000000
vt 15.000000 -22.000000
vt 14.000000 -23.000000
vt 15.000000 -23.000000
vt 16.000000 -22.000000
vt 17.000000 -16.000000
vt 18.000000 -16.000000
vt 17.000000 -17.000000
vt 18.000000 -17.000000
vt 17.000000 -18.000000
vt 18.000000 -18.000000
vt 17.000000 -19.000000
vt 18.000000 -19.000000
vt 17.000000 -20.000000
vt 18.000000 -20.000000
vt 17.000000 -21.000000
vt 18.000000 -21.000000
vt 17.000000 -22.000000
vt 18.000000 -22.000000
vt 17.000000 -23.000000
vt 18.000000 -23.000000

g slot1
usemtl slot1

f 3/3 2/2 1/1
f 3/3 4/4 2/2
f 2/2 6/6 5/5
f 2/2 7/7 6/6
f 4/4 7/7 2/2
f 4/4 8/8 7/7
f 1/1 2/2 5/5
f 11/11 10/10 9/9
f 11/11 12/12 10/10
f 13/13 12/12 11/11
f 13/13 14/14 12/12
f 17/17 16/16 15/15
f 17/17 18/18 16/16
f 18/18 19/19 16/16
f 18/18 14/20 19/19
f 16/16 13/22 20/21
f 16/16 19/19 13/22
f 15/15 20/21 21/2
f 15/15 16/16 20/21
f 23/9 12/23 22/11
f 23/9 10/24 12/23
f 22/11 14/25 17/13
f 22/11 12/23 14/25
f 26/28 25/27 24/26
f 26/28 27/29 25/27
f 27/29 28/30 25/27
f 27/29 29/31 28/30
f 24/26 31/32 30/4
f 24/26 25/27 31/32
f 25/27 32/33 31/32
f 25/27 28/30 32/33
f 29/31 33/34 28/30
f 29/31 34/35 33/34
f 34/35 35/36 33/34
f 34/35 36/37 35/36
f 28/30 37/38 32/33
f 28/30 33/34 37/38
f 33/34 38/39 37/38
f 33/34 35/36 38/39
f 36/37 39/40 35/36
f 36/37 40/41 39/40
f 40/41 41/42 39/40
f 40/41 42/43 41/42
f 35/36 43/44 38/39
f 35/36 39/40 43/44
f 39/40 44/45 43/44
f 39/40 41/42 44/45
f 42/43 45/46 41/42
f 42/43 46/47 45/46
f 46/47 15/15 45/46
f 46/47 17/17 15/15
f 41/42 47/48 44/45
f 41/42 45/46 47/48
f 45/46 21/2 47/48
f 45/46 15/15 21/2
f 50/51 49/50 48/49
f 50/51 51/52 49/50
f 51/52 52/53 49/50
f 51/52 53/54 52/53
f 48/49 29/56 26/55
f 48/49 49/50 29/56
f 49/50 36/57 29/56
f 49/50 52/53 36/57
f 53/54 54/12 52/53
f 53/54 55/10 54/12
f 55/10 22/11 54/12
f 55/10 23/9 22/11
f 52/53 42/14 36/57
f 52/53 54/12 42/14
f 54/12 17/13 42/14
f 54/12 22/11 17/13
f 58/50 57/51 56/49
f 58/50 59/52 57/51
f 60/53 59/52 58/50
f 60/53 61/54 59/52
f 63/56 56/49 62/55
f 63/56 58/50 56/49
f 64/57 58/50 63/56
f 64/57 60/53 58/50
f 67/58 66/24 65/23
f 67/58 68/59 66/24
f 65/12 61/54 60/53
f 65/12 66/10 61/54
f 70/60 65/23 69/25
f 70/60 67/58 65/23
f 69/14 60/53 64/57
f 69/14 65/12 60/53
f 71/61 68/59 67/58
f 71/61 72/62 68/59
f 73/63 72/62 71/61
f 73/63 74/64 72/62
f 75/65 67/58 70/60
f 75/65 71/61 67/58
f 76/66 71/61 75/65
f 76/66 73/63 71/61
f 78/69 77/68 62/67
f 78/69 79/70 77/68
f 79/70 63/71 77/68
f 79/70 80/72 63/71
f 30/4 79/70 78/69
f 30/4 31/32 79/70
f 31/32 80/72 79/70
f 31/32 32/33 80/72
f 80/72 81/73 63/71
f 80/72 82/74 81/73
f 82/74 64/75 81/73
f 82/74 83/76 64/75
f 32/33 82/74 80/72
f 32/33 37/38 82/74
f 37/38 83/76 82/74
f 37/38 38/39 83/76
f 83/76 84/77 64/75
f 83/76 85/78 84/77
f 85/78 69/79 84/77
f 85/78 86/80 69/79
f 38/39 85/78 83/76
f 38/39 43/44 85/78
f 43/44 86/80 85/78
f 43/44 44/45 86/80
f 69/79 88/82 87/81
f 69/79 86/80 88/82
f 44/45 88/82 86/80
f 44/45 47/48 88/82
f 88/82 21/2 89/83
f 88/82 47/48 21/2
f 88/82 90/84 87/81
f 88/82 89/83 90/84
f 69/79 92/86 91/85
f 69/79 87/81 92/86
f 91/85 93/88 70/87
f 91/85 92/86 93/88
f 87/81 94/89 92/86
f 87/81 90/84 94/89
f 92/86 95/90 93/88
f 92/86 94/89 95/90
f 70/87 97/92 96/91
f 70/87 93/88 97/92
f 96/91 98/94 75/93
f 96/91 97/92 98/94
f 93/88 99/95 97/92
f 93/88 95/90 99/95
f 97/92 100/96 98/94
f 97/92 99/95 100/96
f 75/93 102/98 101/97
f 75/93 98/94 102/98
f 101/97 103/100 76/99
f 101/97 102/98 103/100
f 98/94 104/101 102/98
f 98/94 100/96 104/101
f 102/98 105/7 103/100
f 102/98 104/101 105/7
f 107/23 9/9 106/24
f 107/23 11/11 9/9
f 109/58 106/24 108/59
f 109/58 107/23 106/24
f 110/25 11/11 107/23
f 110/25 13/13 11/11
f 111/60 107/23 109/58
f 111/60 110/25 107/23
f 113/61 108/59 112/62
f 113/61 109/58 108/59
f 115/63 112/62 114/64
f 115/63 113/61 112/62
f 116/65 109/58 113/61
f 116/65 111/60 109/58
f 117/66 113/61 115/63
f 117/66 116/65 113/61
f 20/21 119/103 118/102
f 20/21 13/22 119/103
f 118/102 110/105 120/104
f 118/102 119/103 110/105
f 21/2 118/102 89/83
f 21/2 20/21 118/102
f 89/83 120/104 90/84
f 89/83 118/102 120/104
f 120/104 122/107 121/106
f 120/104 110/105 122/107
f 121/106 111/109 123/108
f 121/106 122/107 111/109
f 90/84 121/106 94/89
f 90/84 120/104 121/106
f 94/89 123/108 95/90
f 94/89 121/106 123/108
f 123/108 125/111 124/110
f 123/108 111/109 125/111
f 124/110 116/113 126/112
f 124/110 125/111 116/113
f 95/90 124/110 99/95
f 95/90 123/108 124/110
f 99/95 126/112 100/96
f 99/95 124/110 126/112
f 126/112 128/115 127/114
f 126/112 116/113 128/115
f 127/114 117/117 129/116
f 127/114 128/115 117/117
f 100/96 127/114 104/101
f 100/96 126/112 127/114
f 104/101 129/116 105/7
f 104/101 127/114 129/116

