# obj file of Cube 2 level

mtllib walldoor.mtl

v 256 0 256
v 0 0 256
v 256 0 0
v 0 0 0
v -256 0 256
v -256 0 0
v 256 0 -256
v 0 0 -256
v -256 0 -256
v 256 128 -128
v 256 0 -128
v 128 128 -128
v 128 0 -128
v 128 64 -128
v 64 64 -128
v 64 0 -128
v 64 128 -128
v 256 256 -128
v 128 256 -128
v 128 192 -128
v 64 192 -128
v 32 160 -256
v 32 160 -224
v 64 128 -256
v 64 128 -224
v 32 160 -192
v 64 128 -192
v 0 172 -256
v 0 172 -224
v 0 172 -192
v 32 160 -160
v 64 128 -160
v 64 160 -128
v 32 160 -128
v 32 192 -128
v 0 172 -160
v 0 192 -128
v 0 172 -128
v 64 256 -128
v 64 224 -128
v 32 224 -128
v 0 224 -128
v 32 256 -128
v 0 256 -128
v 64 64 -256
v 64 64 -192
v 64 0 -256
v 64 0 -192
v 256 256 -256
v 128 256 -256
v 128 256 -192
v 64 256 -192
v 64 256 -256
v 64 256 -224
v 32 256 -224
v 32 256 -256
v 32 256 -192
v 0 256 -224
v 0 256 -256
v 0 256 -192
v 64 256 -160
v 32 256 -160
v 0 256 -160
v -64 64 -256
v -64 0 -256
v -64 64 -192
v -64 0 -192
v -64 64 -128
v -64 0 -128
v -128 64 -128
v -128 0 -128
v -64 128 -256
v -64 128 -192
v -64 128 -128
v -128 128 -128
v -256 128 -128
v -256 0 -128
v -64 128 -224
v -32 160 -256
v -32 160 -224
v -32 160 -192
v -64 128 -160
v -32 160 -160
v -32 160 -128
v -64 160 -128
v -32 192 -128
v -64 192 -128
v -128 192 -128
v -32 224 -128
v -64 224 -128
v -32 256 -128
v -64 256 -128
v -128 256 -128
v -256 256 -128
v -32 256 -224
v -32 256 -256
v -32 256 -192
v -64 256 -224
v -64 256 -256
v -64 256 -192
v -32 256 -160
v -64 256 -160
v -128 256 -192
v -128 256 -256
v -256 256 -256

vt 24.000000 -7.000000
vt 24.000000 -15.000000
vt 16.000000 -7.000000
vt 16.000000 -15.000000
vt 24.000000 -23.000000
vt 16.000000 -23.000000
vt 8.000000 -7.000000
vt 8.000000 -15.000000
vt 8.000000 -23.000000
vt 8.000000 21.000000
vt 8.000000 17.000000
vt 12.000000 21.000000
vt 12.000000 17.000000
vt 12.000000 19.000000
vt 14.000000 19.000000
vt 14.000000 17.000000
vt 14.000000 21.000000
vt 8.000000 25.000000
vt 12.000000 25.000000
vt 12.000000 23.000000
vt 14.000000 23.000000
vt 8.000000 -14.000000
vt 9.000000 -14.000000
vt 8.000000 -13.000000
vt 9.000000 -13.000000
vt 10.000000 -14.000000
vt 10.000000 -13.000000
vt 9.000000 -15.000000
vt 10.000000 -15.000000
vt 11.000000 -14.000000
vt 11.000000 -13.000000
vt 14.000000 22.000000
vt 15.000000 22.000000
vt 12.000000 -14.000000
vt 12.000000 -13.000000
vt 15.000000 23.000000
vt 11.000000 -15.000000
vt 16.000000 23.000000
vt 16.000000 22.375000
vt 12.000000 -15.000000
vt 14.000000 25.000000
vt 14.000000 24.000000
vt 15.000000 24.000000
vt 16.000000 24.000000
vt 15.000000 25.000000
vt 16.000000 25.000000
vt 8.000000 19.000000
vt 10.000000 19.000000
vt 10.000000 17.000000
vt 10.000000 21.000000
vt 12.000000 -7.000000
vt 12.000000 -11.000000
vt 8.000000 -11.000000
vt 10.000000 -11.000000
vt 18.000000 19.000000
vt 18.000000 17.000000
vt 20.000000 19.000000
vt 20.000000 17.000000
vt 18.000000 21.000000
vt 20.000000 21.000000
vt 24.000000 21.000000
vt 24.000000 17.000000
vt 8.000000 -17.000000
vt 9.000000 -17.000000
vt 8.000000 -16.000000
vt 9.000000 -16.000000
vt 10.000000 -17.000000
vt 10.000000 -16.000000
vt 11.000000 -17.000000
vt 11.000000 -16.000000
vt 17.000000 22.000000
vt 18.000000 22.000000
vt 12.000000 -17.000000
vt 12.000000 -16.000000
vt 17.000000 23.000000
vt 18.000000 23.000000
vt 20.000000 23.000000
vt 17.000000 24.000000
vt 18.000000 24.000000
vt 17.000000 25.000000
vt 18.000000 25.000000
vt 20.000000 25.000000
vt 24.000000 25.000000
vt 10.000000 -19.000000
vt 8.000000 -19.000000
vt 12.000000 -19.000000
vt 12.000000 -23.000000

g slot1
usemtl slot1

f 3/3 2/2 1/1
f 3/3 4/4 2/2
f 4/4 5/5 2/2
f 4/4 6/6 5/5
f 7/7 4/4 3/3
f 7/7 8/8 4/4
f 8/8 6/6 4/4
f 8/8 9/9 6/6
f 12/12 11/11 10/10
f 12/12 13/13 11/11
f 15/15 13/13 14/14
f 15/15 16/16 13/13
f 17/17 14/14 12/12
f 17/17 15/15 14/14
f 19/19 10/10 18/18
f 19/19 12/12 10/10
f 21/21 12/12 20/20
f 21/21 17/17 12/12
f 24/24 23/23 22/22
f 24/24 25/25 23/23
f 25/25 26/26 23/23
f 25/25 27/27 26/26
f 22/22 29/28 28/8
f 22/22 23/23 29/28
f 23/23 30/29 29/28
f 23/23 26/26 30/29
f 27/27 31/30 26/26
f 27/27 32/31 31/30
f 34/33 17/17 33/32
f 32/31 34/34 31/30
f 32/31 17/35 34/34
f 35/36 33/32 21/21
f 35/36 34/33 33/32
f 26/26 36/37 30/29
f 26/26 31/30 36/37
f 37/38 34/33 35/36
f 37/38 38/39 34/33
f 31/30 38/40 36/37
f 31/30 34/34 38/40
f 39/41 20/20 19/19
f 39/41 21/21 20/20
f 41/43 21/21 40/42
f 41/43 35/36 21/21
f 42/44 35/36 41/43
f 42/44 37/38 35/36
f 43/45 40/42 39/41
f 43/45 41/43 40/42
f 44/46 41/43 43/45
f 44/46 42/44 41/43
f 47/11 46/48 45/47
f 47/11 48/49 46/48
f 48/49 15/14 46/48
f 48/49 16/13 15/14
f 45/47 27/50 24/10
f 45/47 46/48 27/50
f 46/48 17/12 27/50
f 46/48 15/14 17/12
f 49/7 19/52 18/51
f 49/7 50/53 19/52
f 50/53 52/27 51/54
f 50/53 53/24 52/27
f 51/54 39/35 19/52
f 51/54 52/27 39/35
f 53/24 55/23 54/25
f 53/24 56/22 55/23
f 54/25 57/26 52/27
f 54/25 55/23 57/26
f 56/22 58/28 55/23
f 56/22 59/8 58/28
f 55/23 60/29 57/26
f 55/23 58/28 60/29
f 52/27 62/30 61/31
f 52/27 57/26 62/30
f 61/31 43/34 39/35
f 61/31 62/30 43/34
f 57/26 63/37 62/30
f 57/26 60/29 63/37
f 62/30 44/40 43/34
f 62/30 63/37 44/40
f 66/48 65/11 64/47
f 66/48 67/49 65/11
f 70/57 69/56 68/55
f 70/57 71/58 69/56
f 68/14 67/49 66/48
f 68/14 69/13 67/49
f 73/50 64/47 72/10
f 73/50 66/48 64/47
f 75/60 68/55 74/59
f 75/60 70/57 68/55
f 74/12 66/48 73/50
f 74/12 68/14 66/48
f 76/61 71/58 75/60
f 76/61 77/62 71/58
f 79/65 78/64 72/63
f 79/65 80/66 78/64
f 80/66 73/67 78/64
f 80/66 81/68 73/67
f 28/8 80/66 79/65
f 28/8 29/28 80/66
f 29/28 81/68 80/66
f 29/28 30/29 81/68
f 81/68 82/69 73/67
f 81/68 83/70 82/69
f 85/72 74/59 84/71
f 83/70 74/73 82/69
f 83/70 84/74 74/73
f 30/29 83/70 81/68
f 30/29 36/37 83/70
f 86/75 38/39 37/38
f 86/75 84/71 38/39
f 36/37 84/74 83/70
f 36/37 38/40 84/74
f 87/76 84/71 86/75
f 87/76 85/72 84/71
f 88/77 74/59 87/76
f 88/77 75/60 74/59
f 89/78 37/38 42/44
f 89/78 86/75 37/38
f 90/79 86/75 89/78
f 90/79 87/76 86/75
f 91/80 42/44 44/46
f 91/80 89/78 42/44
f 92/81 89/78 91/80
f 92/81 90/79 89/78
f 93/82 87/76 92/81
f 93/82 88/77 87/76
f 94/83 75/60 93/82
f 94/83 76/61 75/60
f 59/8 95/66 58/28
f 59/8 96/65 95/66
f 58/28 97/68 60/29
f 58/28 95/66 97/68
f 96/65 98/64 95/66
f 96/65 99/63 98/64
f 95/66 100/67 97/68
f 95/66 98/64 100/67
f 60/29 101/70 63/37
f 60/29 97/68 101/70
f 63/37 91/74 44/40
f 63/37 101/70 91/74
f 97/68 102/69 101/70
f 97/68 100/67 102/69
f 101/70 92/73 91/74
f 101/70 102/69 92/73
f 99/63 103/84 100/67
f 99/63 104/85 103/84
f 100/67 93/86 92/73
f 100/67 103/84 93/86
f 104/85 94/87 93/86
f 104/85 105/9 94/87

